<svg width="167" height="64" viewBox="0 0 167 64" fill="none" xmlns="http://www.w3.org/2000/svg">
<g filter="url(#filter0_d_248_6204)">
<path d="M0 15C0 6.71573 6.71573 0 15 0H163C165.209 0 167 1.79086 167 4V49C167 57.2843 160.284 64 152 64H4C1.79086 64 0 62.2091 0 60V15Z" fill="#EA6D27"/>
</g>
<defs>
<filter id="filter0_d_248_6204" x="-30" y="-15" width="227" height="124" filterUnits="userSpaceOnUse" color-interpolation-filters="sRGB">
<feFlood flood-opacity="0" result="BackgroundImageFix"/>
<feColorMatrix in="SourceAlpha" type="matrix" values="0 0 0 0 0 0 0 0 0 0 0 0 0 0 0 0 0 0 127 0" result="hardAlpha"/>
<feOffset dy="15"/>
<feGaussianBlur stdDeviation="15"/>
<feComposite in2="hardAlpha" operator="out"/>
<feColorMatrix type="matrix" values="0 0 0 0 0 0 0 0 0 0 0 0 0 0 0 0 0 0 0.15 0"/>
<feBlend mode="normal" in2="BackgroundImageFix" result="effect1_dropShadow_248_6204"/>
<feBlend mode="normal" in="SourceGraphic" in2="effect1_dropShadow_248_6204" result="shape"/>
</filter>
</defs>
</svg>
