<svg width="780" height="70" viewBox="0 0 780 70" fill="none" xmlns="http://www.w3.org/2000/svg">
<path d="M0 20.5C0 9.4543 8.95431 0.5 20 0.5H760C771.046 0.5 780 9.4543 780 20.5V49.5C780 60.5457 771.046 69.5 760 69.5H20C8.9543 69.5 0 60.5457 0 49.5V20.5Z" fill="white"/>
</svg>
